…
## What is mean total number of steps taken per day?
1. Calculate the total number of steps taken per day

```r
# Assign the summary data to the variable step_sum.tb
# NOTE: the NA values are ignored as required so that the sum of a date, where all the data is NA, could be zero
step_sum.tb <- data %>% group_by(date) %>% summarise(steps_sum=sum(steps, na.rm = TRUE))
step_sum.tb
```

```
## # A tibble: 61 x 2
##    date       steps_sum
##    <date>         <int>
##  1 2012-10-01         0
##  2 2012-10-02       126
##  3 2012-10-03     11352
##  4 2012-10-04     12116
##  5 2012-10-05     13294
##  6 2012-10-06     15420
##  7 2012-10-07     11015
##  8 2012-10-08         0
##  9 2012-10-09     12811
## 10 2012-10-10      9900
## # … with 51 more rows
```
…
